﻿OPL Format v1,Submit by email:,issues@openpowerlifting.org,,,,,,,,,,,,,,,,,,,,,,,,,,,
,,,,,,,,,,,,,,,,,,,,,,,,,,,,,
Federation,Date,MeetCountry,MeetState,MeetTown,MeetName,Formula,,,,,,,,,,,,,,,,,,,,,,,
WRPF,11/20/2021,United States,Nevada,Las Vegas,FQ WRPF Non Tested Nationals 2021-Day 1,Wilks,,,,,,,,,,,,,,,,,,,,,,,
,,,,,,,,,,,,,,,,,,,,,,,,,,,,,
Place,Name,,Sex,BirthDate,Age,Country,State,Equipment,Division,BodyweightKg,WeightClassKg,Squat1Kg,Squat2Kg,Squat3Kg,Squat4Kg,Best3SquatKg,Bench1Kg,Bench2Kg,Bench3Kg,Bench4Kg,Best3BenchKg,Deadlift1Kg,Deadlift2Kg,Deadlift3Kg,Deadlift4Kg,Best3DeadliftKg,TotalKg,Points,Event
1,Amanda Wolff,,F,10/16/1989,32,USA,TX,Wraps,Open,73.8,75,-182.5,195,-207.5,,195,117.5,125,130,,130,200,215,222.5,,222.5,547.5,525.8260081,SBD
1,Molly Johnson,,F,7/8/1989,32,USA,CO,Raw,Open,71.75,75,147.5,162.5,170,,170,87.5,95,-102.5,,95,200,-220,-227.5,,200,465,454.9121786,SBD
1,Devin Merafuentes,,M,4/4/2001,20,USA,NV,Wraps,Junior (20-23),99.5,100,290,305,-317.5,,305,162.5,172.5,180,,180,227.5,250,272.5,,272.5,757.5,461.9363958,SBD
1,Jesse Carreon,,M,8/26/1965,56,USA,CO,Wraps,Master (55-59),91.55,100,197.5,207.5,-212.5,,207.5,122.5,132.5,140,,140,182.5,197.5,217.5,,217.5,565,357.6287831,SBD
1,Raymond Phillips,,M,7/28/1985,36,USA,NY,Wraps,Open,75,75,277.5,-295,-295,,277.5,150,-157.5,-157.5,,150,287.5,-302.5,302.5,,302.5,730,520.1691456,SBD
1,Devin Merafuentes,,M,4/4/2001,20,USA,NV,Wraps,Open,99.5,100,290,305,-317.5,,305,162.5,172.5,180,,180,227.5,250,272.5,,272.5,757.5,461.9363958,SBD
2,David Stensland,,M,10/31/1984,37,USA,ND,Wraps,Open,99.2,100,262.5,-280,-280,,262.5,165,-175,-177.5,,165,287.5,295,-310,,295,722.5,441.1335681,SBD
3,Chris Ramos,,M,4/14/1986,35,USA,CA,Wraps,Open,97,100,250,260,,,260,155,-165,-165,,155,-260,260,275,,275,690,425.269823,SBD
4,Zacharie Levan,,M,7/5/1994,27,USA,NV,Wraps,Open,98.75,100,205,220,-230,,220,135,145,-150,,145,227.5,245,-255,,245,610,373.139997,SBD
5,Nicholas Anderson,,M,1/9/1990,31,USA,CA,Wraps,Open,92.35,100,200,212.5,222.5,,222.5,122.5,132.5,-142.5,,132.5,230,242.5,250,,250,605,381.3312682,SBD
1,Curtis Miller,,M,3/16/1989,32,USA,PA,Wraps,Open,109.65,110,-325,342.5,-357.5,,342.5,175,185,192.5,,192.5,272.5,317.5,-365,,317.5,852.5,502.1830028,SBD
1,Gage Mason,,M,9/25/1991,30,USA,NV,Wraps,Open,122.25,125,305,322.5,-335,,322.5,172.5,-190,,,172.5,295,322.5,,,322.5,817.5,468.035924,SBD
1,Eric Patel,,M,3/11/1995,26,USA,CA,Wraps,Open,139.3,140,205,217.5,227.5,,227.5,117.5,-125,-130,,117.5,205,217.5,227.5,,227.5,572.5,320.1579556,SBD
1,Justin Ruiz,,M,9/3/1989,32,USA,CA,Wraps,Open,147.55,140+,300,320,,,320,250,255,260,,260,-310,310,327.5,,327.5,907.5,503.2820741,SBD
2,Ryan Oushakoff,,M,11/28/2000,20,USA,TX,Wraps,Open,140.7,140+,-285,295,-312.5,,295,185,197.5,-205,,197.5,272.5,285,-287.5,,285,777.5,434.1494458,SBD
3,Michael Eisner,,M,10/10/1994,27,USA,CA,Wraps,Open,157.85,140+,272.5,290,-307.5,,290,175,185,192.5,,192.5,250,270,280,,280,762.5,418.8373572,SBD
1,Jesse Carreon,,M,8/26/1965,56,USA,CO,Wraps,Master (55-59),91.55,100,,,,,,122.5,132.5,140,,140,,,,,,140,88.61598165,B
1,Jesse Carreon,,M,8/27/1965,56,USA,CO,Wraps,Master (55-59) ,91.55,100,,,,,,122.5,132.5,140,,140,182.5,197.5,217.5,,217.5,357.5,226.2872388,BD
1,Jesse Carreon,,M,8/28/1965,56,USA,CO,Wraps,Master (55-59),91.55,100,,,,,,,,,,,182.5,197.5,217.5,,217.5,217.5,137.6712572,D
1,Jordan Kortman,,M,9/10/2000,21,USA,CA,Raw,Junior (20-23),95.35,100,230,247.5,260,,260,165,175,-182.5,,175,290,305,320,,320,755,468.854139,SBD
2,Agustin Reyes,,M,7/18/1999,22,USA,NV,Raw,Junior (20-23),99.35,100,170,190,200,,200,140,160,-172.5,,160,220,240,252.5,,252.5,612.5,373.7414683,SBD
1,Carlos Meza,,M,6/17/1999,22,USA,NV,Raw,Junior (20-23),105.8,110,227.5,237.5,252.5,,252.5,-147.5,167.5,182.5,,182.5,225,-247.5,-250,,225,660,393.3475969,SBD
1,Victor Arevalo,,M,12/22/1999,21,USA,CA,Raw,Junior (20-23),180,140+,240,250,-257.5,,250,200,207.5,215,,215,260,272.5,282.5,,282.5,747.5,402.2844416,SBD
1,Stephen Reed,,M,11/7/1980,41,USA,MD,Raw,Master (40-44),130.35,140,240,260,272.5,,272.5,170,187.5,192.5,,192.5,255,-272.5,-272.5,,255,720,407.0318845,SBD
2,Reilly Cook,,M,12/27/1979,41,USA,CA,Raw,Master (40-44),138.2,140,202.5,222.5,237.5,,237.5,132.5,145,,,145,212.5,242.5,250,,250,632.5,354.1386059,SBD
1,Dwayne Landon,,M,4/5/1976,45,USA,VA,Raw,Master (45-49),141.3,140+,190,200,205,,205,140,145,147.5,,147.5,227.5,237.5,-245,,237.5,590,329.2437992,SBD
1,Dillon Smith,,M,8/1/1991,30,USA,NV,Raw,Open,99.1,100,245,260,272.5,,272.5,175,185,200,,200,240,260,272.5,,272.5,745,455.0586307,SBD
2,Agustin Reyes,,M,7/18/1999,22,USA,NV,Raw,Open,99.35,100,170,190,200,,200,140,160,-172.5,,160,220,240,252.5,,252.5,612.5,373.7414683,SBD
1,Jacob Noble,,M,2/19/1993,28,USA,NV,Raw,Open,109.6,110,285,300,307.5,,307.5,172.5,185,187.5,,187.5,305,325,335,340,335,830,488.9979523,SBD
2,Keith Valeros,,M,4/28/1997,24,USA,CA,Raw,Open,109.35,110,290,307.5,317.5,,317.5,137.5,142.5,,,142.5,295,-317.5,,,295,755,445.1272881,SBD
1,Alex Bustamante,,M,6/15/1995,26,USA,CA,Raw,Open,139.45,140,275,295,-310,,295,190,200,207.5,,207.5,310,330,-347.5,,330,832.5,465.481622,SBD
2,Stephen Reed,,M,11/7/1980,41,USA,MD,Raw,Open,130.35,140,240,260,272.5,,272.5,170,187.5,192.5,,192.5,255,-272.5,-272.5,,255,720,407.0318845,SBD
3,Matthew Rodriguez,,M,3/27/1992,29,USA,CA,Raw,Open,139.85,140,150,157.5,175,,175,110,-120,-122.5,,110,185,192.5,200,,200,485,271.0647575,SBD
1,Salvatore Marte,,M,12/25/1991,29,USA,NV,Raw,Open,144.55,140+,252.5,272.5,290,,290,167.5,-182.5,182.5,,182.5,272.5,297.5,-320,,297.5,770,428.275353,SBD
2,Francisco Castanon,,M,1/6/1998,23,USA,CA,Raw,Open,177,140+,302.5,312.5,-320,,312.5,172.5,-185,185,,185,220,230,235,,235,732.5,395.2771314,SBD
1,Michael Razo,,M,7/30/1982,39,USA,CA,Raw,Sub-Master (35-39),136.95,140,227.5,237.5,-245,,237.5,135,145,147.5,,147.5,232.5,237.5,245,,245,630,353.2355101,SBD
1,Michael Poort,,M,8/17/1974,47,USA,CO,Raw,Master (40-44),98,100,,,,,,175,182.5,187.5,190,187.5,,,,,,187.5,115.0592653,B
1,Stephen Reed,,M,11/7/1980,41,USA,MD,Raw,Master (40-44),130.35,140,,,,,,170,187.5,192.5,,192.5,,,,,,192.5,108.8244969,B
1,Jack Crouse,,M,8/31/1951,70,USA,AZ,Raw,Master (70-74) ,90.2,100,,,,,,95,97.5,-100,,97.5,,,,,,97.5,62.17336731,B
1,Michael Poort,,M,8/17/1974,47,USA,CO,Raw,Open ,98,100,,,,,,175,182.5,187.5,190,187.5,,,,,,187.5,115.0592653,B
2,Mike Delgado,,M,2/21/1986,35,USA,CA,Raw,Open,99.8,100,,,,,,175,185,187.5,,187.5,,,,,,187.5,114.2020034,B
1,Joey Soden,,M,5/3/1991,30,USA,CA,Raw,Open,120.1,125,,,,,,210,-220,220,,220,,,,,,220,126.4582784,B
1,Stephen Reed,,M,11/7/1980,41,USA,MD,Raw,Open,130.35,140,,,,,,170,187.5,192.5,,192.5,,,,,,192.5,108.8244969,B
1,Stephen Reed,,M,11/7/1980,41,USA,MD,Raw,Master (40-44) ,130.35,140,,,,,,170,187.5,192.5,,192.5,255,-272.5,-272.5,,255,447.5,252.9816226,BD
1,Jack Crouse,,M,8/31/1951,70,USA,AZ,Raw,Master (70-74),90.2,100,,,,,,95,97.5,-100,,97.5,135,152.5,-165,,152.5,250,159.4188905,BD
1,Stephen Reed,,M,11/7/1980,41,USA,MD,Raw,Open ,130.35,140,,,,,,170,187.5,192.5,,192.5,255,-272.5,-272.5,,255,447.5,252.9816226,BD
1,Stephen Reed,,M,11/7/1980,41,USA,MD,Raw,Master (40-44),130.35,140,,,,,,,,,,,255,-272.5,-272.5,,255,255,144.1571257,D
1,Jack Crouse,,M,8/31/1951,70,USA,AZ,Raw,Master (70-74),90.2,100,,,,,,,,,,,135,152.5,-165,,152.5,152.5,97.24552323,D
1,Stephen Reed,,M,11/7/1980,41,USA,MD,Raw,Open,130.35,140,,,,,,,,,,,255,-272.5,-272.5,,255,255,144.1571257,D
1,Michael Poort,,M,8/17/1974,47,USA,CO,Single_ply,Master (40-44) ,98,100,,,,,,250,265,-272.5,,265,,,,,,265,162.617095,B
1,Michael Poort,,M,8/17/1974,47,USA,CO,Single_ply,Open ,98,100,,,,,,250,265,-272.5,,265,,,,,,265,162.617095,B
